module gogui

go 1.17

require github.com/Equanox/gotron v0.2.23

require (
	fyne.io/fyne/v2 v2.1.2 // indirect
	github.com/Benchkram/errz v0.0.0-20180825145403-619d291cb54f // indirect
	github.com/davecgh/go-spew v1.1.1 // indirect
	github.com/fredbi/uri v0.0.0-20181227131451-3dcfdacbaaf3 // indirect
	github.com/fsnotify/fsnotify v1.4.9 // indirect
	github.com/go-gl/gl v0.0.0-20210813123233-e4099ee2221f // indirect
	github.com/go-gl/glfw/v3.3/glfw v0.0.0-20211024062804-40e447a793be // indirect
	github.com/godbus/dbus/v5 v5.0.4 // indirect
	github.com/goki/freetype v0.0.0-20181231101311-fa8a33aabaff // indirect
	github.com/gorilla/websocket v1.4.0 // indirect
	github.com/otiai10/copy v1.0.1 // indirect
	github.com/pkg/errors v0.9.1 // indirect
	github.com/pmezard/go-difflib v1.0.0 // indirect
	github.com/rs/zerolog v1.11.0 // indirect
	github.com/satori/go.uuid v1.2.1-0.20181028125025-b2ce2384e17b // indirect
	github.com/srwiley/oksvg v0.0.0-20200311192757-870daf9aa564 // indirect
	github.com/srwiley/rasterx v0.0.0-20200120212402-85cb7272f5e9 // indirect
	github.com/stretchr/testify v1.5.1 // indirect
	github.com/yuin/goldmark v1.3.8 // indirect
	golang.org/x/image v0.0.0-20200430140353-33d19683fad8 // indirect
	golang.org/x/net v0.0.0-20210405180319-a5a99cb37ef4 // indirect
	golang.org/x/sys v0.0.0-20210630005230-0f9fa26af87c // indirect
	golang.org/x/text v0.3.3 // indirect
	gopkg.in/yaml.v2 v2.2.8 // indirect
)
